1 94.06
2 102.78
3 124.18
4 132.9
5 153.2
6 161.92
7 181.72
8 190.44
9 210.24
10 218.96
11 238.76
12 247.48
13 267.28
14 276.00
15 296.6
16 307.72
17 329.32
18 338.04
19 358.64
20 369.76
21 391.36
22 400.08
23 420.68
24 430.6
25 465.4
26 474.12
27 508.92
28 517.64