1 	 133.2	EE	0	0	78
2 	 142.1	EE	0	0	90
3 	 165.8	EE	0	0	89
4 	 174.7	EE	0	0	88
5 	 198.4	EE	0	0	77
6 	 207.3	EE	0	0	85
7 	 231.0	EE	0	0	84
8 	 239.9	EE	0	0	32
9 	 263.6	EE	0	0	69
10 	 272.5	EE	0	0	79
11 	 296.2	EE	0	0	76
12 	 305.1	EE	0	0	83
13 	 328.8	EE	0	0	70
14 	 337.7	EE	0	0	73
15 	 361.4	EE	0	0	86
16 	 370.3	EE	0	0	87
17 	 394.0	EE	0	0	82
18 	 402.9	EE	0	0	72
19 	 426.6	EE	0	0	67
20 	 435.5	EE	0	0	65
21 	 460.5	EE	0	0	35
22 	 471.8	EE	0	0	36
23 	 499.8	EE	0	0	44
24 	 512.7	EE	0	0	51
25 	 539.4	EE	0	0	142
26 	 549.5	EE	0	0	143
27 	 576.2	EE	0	0	145
28 	 586.4	EE	0	0	144
29 	 690.9	FH	0	0	62
30 	 824.0	FH	0	0	54
31 	 879.6	FH	1	0	53
31 	 879.6	FH	0	-1	48
31 	 879.6	FH	0	1	38
31 	 879.6	FH	1	-1	46
31 	 879.6	FH	-1	1	39
31 	 879.6	FH	0	0	45
31 	 879.6	FH	-1	0	43
32 	 951.0	FH	1	0	136
32 	 951.0	FH	0	-1	138
32 	 951.0	FH	0	1	141
32 	 951.0	FH	1	-1	140
32 	 951.0	FH	-1	1	147
32 	 951.0	FH	0	0	139
32 	 951.0	FH	-1	0	137
33 	 1021.0	FH	1	0	134
33 	 1021.0	FH	0	-1	146
33 	 1021.0	FH	0	1	91
33 	 1021.0	FH	1	-1	132
33 	 1021.0	FH	-1	1	130
33 	 1021.0	FH	0	0	131
33 	 1021.0	FH	-1	0	133
34 	 1229.5	FH	1	0	127
34 	 1229.5	FH	0	-1	135
34 	 1229.5	FH	0	1	125
34 	 1229.5	FH	1	-1	126
34 	 1229.5	FH	0	0	119
34 	 1229.5	FH	-1	1	129
34 	 1229.5	FH	-1	0	128
35 	 1296.9	FH	1	0	98
35 	 1296.9	FH	0	-1	105
35 	 1296.9	FH	0	1	115
35 	 1296.9	FH	1	-1	95
35 	 1296.9	FH	-1	1	40
35 	 1296.9	FH	0	0	96
35 	 1296.9	FH	-1	0	101
36 	 1370.0	FH	1	0	55
36 	 1370.0	FH	0	-1	66
36 	 1370.0	FH	0	1	75
36 	 1370.0	FH	1	-1	63
36 	 1370.0	FH	0	0	59
36 	 1370.0	FH	-1	1	64
36 	 1370.0	FH	-1	0	71
37 	 1441.1	FH	1	0	123
37 	 1441.1	FH	0	-1	113
37 	 1441.1	FH	0	1	122
37 	 1441.1	FH	1	-1	34
37 	 1441.1	FH	-1	1	104
37 	 1441.1	FH	0	0	106
37 	 1441.1	FH	-1	0	100
38 	 1513.2	FH	1	0	97
38 	 1513.2	FH	0	-1	37
38 	 1513.2	FH	0	1	99
38 	 1513.2	FH	1	-1	111
38 	 1513.2	FH	-1	1	121
38 	 1513.2	FH	0	0	94
38 	 1513.2	FH	-1	0	114
39 	 1609.6	FH	1	0	118
39 	 1609.6	FH	0	-1	120
39 	 1609.6	FH	0	1	124
39 	 1609.6	FH	1	-1	107
39 	 1609.6	FH	-1	1	108
39 	 1609.6	FH	0	0	102
39 	 1609.6	FH	-1	0	109
